{
  "project_info": {
    "project_id": "datumapp-1156",
    "project_number": "190231194362",
    "name": "DatumApp"
  },
  "client": [
    {
      "client_info": {
        "mobilesdk_app_id": "1:190231194362:android:e21f20a2588b6fab",
        "client_id": "android:com.three_embed.datum.home",
        "client_type": 1,
        "android_client_info": {
          "package_name": "com.three_embed.datum.home"
        }
      },
      "oauth_client": [],
      "api_key": [],
      "services": {
        "analytics_service": {
          "status": 1
        },
        "cloud_messaging_service": {
          "status": 2,
          "apns_config": []
        },
        "appinvite_service": {
          "status": 1,
          "other_platform_oauth_client": []
        },
        "google_signin_service": {
          "status": 1
        },
        "ads_service": {
          "status": 1
        }
      }
    }
  ],
  "client_info": [],
  "ARTIFACT_VERSION": "1"
}